Five-stage-pipelined/branch_test.vcd
$date
	Wed Dec  3 15:52:42 2025
$end
$version
	Icarus Verilog
$end
$timescale
	1ps
$end
$scope module tb_core_branch $end
$var wire 32 ! pc_out [31:0] $end
$var reg 1 " clk $end
$var reg 1 # reset $end
$scope module uut $end
$var wire 1 " clk $end
$var wire 32 $ ex_jalr_target [31:0] $end
$var wire 1 % flush_id_ex $end
$var wire 1 & flush_id_ex_branch $end
$var wire 1 ' flush_id_ex_stall $end
$var wire 1 ( flush_if_id $end
$var wire 1 ) if_id_write $end
$var wire 1 * load_use_hazard $end
$var wire 32 + pc_out [31:0] $end
$var wire 1 , pc_write $end
$var wire 1 # reset $end
$var wire 1 - wb_reg_write $end
$var wire 5 . wb_rd [4:0] $end
$var wire 32 / wb_pc_plus4 [31:0] $end
$var wire 1 0 wb_mem_to_reg $end
$var wire 32 1 wb_mem_data [31:0] $end
$var wire 1 2 wb_jalr $end
$var wire 1 3 wb_jal $end
$var wire 1 4 wb_is_lui $end
$var wire 32 5 wb_imm [31:0] $end
$var wire 32 6 wb_data [31:0] $end
$var wire 32 7 wb_alu_result [31:0] $end
$var wire 32 8 rs2_data [31:0] $end
$var wire 5 9 rs2_addr [4:0] $end
$var wire 32 : rs1_data [31:0] $end
$var wire 5 ; rs1_addr [4:0] $end
$var wire 5 < rd_addr [4:0] $end
$var wire 32 = pc [31:0] $end
$var wire 7 > opcode [6:0] $end
$var wire 32 ? mem_rs2 [31:0] $end
$var wire 1 @ mem_reg_write $end
$var wire 32 A mem_read_data [31:0] $end
$var wire 5 B mem_rd [4:0] $end
$var wire 32 C mem_pc_plus4 [31:0] $end
$var wire 1 D mem_mem_write $end
$var wire 1 E mem_mem_to_reg $end
$var wire 1 F mem_mem_read $end
$var wire 1 G mem_jalr $end
$var wire 1 H mem_jal $end
$var wire 1 I mem_is_lui $end
$var wire 32 J mem_imm [31:0] $end
$var wire 32 K mem_alu_result [31:0] $end
$var wire 1 L is_lui_ex $end
$var wire 1 M is_auipc_ex $end
$var wire 32 N instruction [31:0] $end
$var wire 32 O immediate [31:0] $end
$var wire 32 P if_id_pc [31:0] $end
$var wire 32 Q if_id_instr [31:0] $end
$var wire 1 R id_reg_write $end
$var wire 1 S id_mem_write $end
$var wire 1 T id_mem_to_reg $end
$var wire 1 U id_mem_read $end
$var wire 1 V id_jalr $end
$var wire 1 W id_jal $end
$var wire 1 X id_branch $end
$var wire 1 Y id_alu_src $end
$var wire 4 Z id_alu_op [3:0] $end
$var wire 7 [ funct7 [6:0] $end
$var wire 3 \ funct3 [2:0] $end
$var wire 32 ] ex_rs2_data [31:0] $end
$var wire 5 ^ ex_rs2_addr [4:0] $end
$var wire 32 _ ex_rs1_data [31:0] $end
$var wire 5 ` ex_rs1_addr [4:0] $end
$var wire 1 a ex_reg_write $end
$var wire 5 b ex_rd [4:0] $end
$var wire 32 c ex_pc_plus4 [31:0] $end
$var wire 32 d ex_pc [31:0] $end
$var wire 7 e ex_opcode [6:0] $end
$var wire 1 f ex_mem_write $end
$var wire 1 g ex_mem_to_reg $end
$var wire 1 h ex_mem_read $end
$var wire 1 i ex_jalr $end
$var wire 32 j ex_jal_target [31:0] $end
$var wire 1 k ex_jal $end
$var wire 32 l ex_imm [31:0] $end
$var wire 3 m ex_funct3 [2:0] $end
$var wire 32 n ex_branch_target [31:0] $end
$var wire 1 o ex_branch_taken $end
$var wire 1 p ex_branch $end
$var wire 1 q ex_alu_zero $end
$var wire 1 r ex_alu_src $end
$var wire 32 s ex_alu_result [31:0] $end
$var wire 4 t ex_alu_op [3:0] $end
$var wire 32 u ex_alu_b [31:0] $end
$var wire 32 v ex_alu_a [31:0] $end
$var reg 32 w alu_rs1 [31:0] $end
$var reg 32 x alu_rs2 [31:0] $end
$var reg 1 y ex_branch_taken_r $end
$scope module alu_unit $end
$var wire 32 z a [31:0] $end
$var wire 32 { b [31:0] $end
$var wire 4 | alu_op [3:0] $end
$var reg 32 } result [31:0] $end
$var reg 1 q zero $end
$upscope $end
$scope module bu $end
$var wire 32 ~ rs1 [31:0] $end
$var wire 32 !" rs2 [31:0] $end
$var wire 3 "" funct3 [2:0] $end
$var wire 1 p branch $end
$var reg 1 o branch_taken $end
$upscope $end
$scope module cu $end
$var wire 7 #" opcode [6:0] $end
$var wire 7 $" funct7 [6:0] $end
$var wire 3 %" funct3 [2:0] $end
$var reg 4 &" alu_op [3:0] $end
$var reg 1 Y alu_src $end
$var reg 1 X branch $end
$var reg 1 W jal $end
$var reg 1 V jalr $end
$var reg 1 U mem_read $end
$var reg 1 T mem_to_reg $end
$var reg 1 S mem_write $end
$var reg 1 R reg_write $end
$upscope $end
$scope module ex_mem_reg $end
$var wire 32 '" alu_result_in [31:0] $end
$var wire 1 " clk $end
$var wire 1 L is_lui_in $end
$var wire 32 (" pc_plus4_in [31:0] $end
$var wire 1 # reset $end
$var wire 32 )" rs2_in [31:0] $end
$var wire 1 a reg_write_in $end
$var wire 5 *" rd_in [4:0] $end
$var wire 1 f mem_write_in $end
$var wire 1 g mem_to_reg_in $end
$var wire 1 h mem_read_in $end
$var wire 1 i jalr_in $end
$var wire 1 k jal_in $end
$var wire 32 +" imm_in [31:0] $end
$var reg 32 ," alu_result_out [31:0] $end
$var reg 32 -" imm_out [31:0] $end
$var reg 1 I is_lui_out $end
$var reg 1 H jal_out $end
$var reg 1 G jalr_out $end
$var reg 1 F mem_read_out $end
$var reg 1 E mem_to_reg_out $end
$var reg 1 D mem_write_out $end
$var reg 32 ." pc_plus4_out [31:0] $end
$var reg 5 /" rd_out [4:0] $end
$var reg 1 @ reg_write_out $end
$var reg 32 0" rs2_out [31:0] $end
$upscope $end
$scope module id $end
$var wire 5 1" rs2 [4:0] $end
$var wire 5 2" rs1 [4:0] $end
$var wire 5 3" rd [4:0] $end
$var wire 7 4" opcode [6:0] $end
$var wire 32 5" instruction [31:0] $end
$var wire 7 6" funct7 [6:0] $end
$var wire 3 7" funct3 [2:0] $end
$var reg 32 8" immediate [31:0] $end
$upscope $end
$scope module id_ex_reg $end
$var wire 4 9" alu_op_in [3:0] $end
$var wire 1 Y alu_src_in $end
$var wire 1 X branch_in $end
$var wire 1 " clk $end
$var wire 1 % flush $end
$var wire 3 :" funct3_in [2:0] $end
$var wire 32 ;" imm_in [31:0] $end
$var wire 1 W jal_in $end
$var wire 1 V jalr_in $end
$var wire 1 U mem_read_in $end
$var wire 1 T mem_to_reg_in $end
$var wire 1 S mem_write_in $end
$var wire 7 <" opcode_in [6:0] $end
$var wire 5 =" rd_in [4:0] $end
$var wire 1 R reg_write_in $end
$var wire 1 # reset $end
$var wire 5 >" rs1_addr_in [4:0] $end
$var wire 5 ?" rs2_addr_in [4:0] $end
$var wire 32 @" rs2_in [31:0] $end
$var wire 32 A" rs1_in [31:0] $end
$var wire 32 B" pc_in [31:0] $end
$var reg 4 C" alu_op_out [3:0] $end
$var reg 1 r alu_src_out $end
$var reg 1 p branch_out $end
$var reg 3 D" funct3_out [2:0] $end
$var reg 32 E" imm_out [31:0] $end
$var reg 1 k jal_out $end
$var reg 1 i jalr_out $end
$var reg 1 h mem_read_out $end
$var reg 1 g mem_to_reg_out $end
$var reg 1 f mem_write_out $end
$var reg 7 F" opcode_out [6:0] $end
$var reg 32 G" pc_out [31:0] $end
$var reg 5 H" rd_out [4:0] $end
$var reg 1 a reg_write_out $end
$var reg 5 I" rs1_addr_out [4:0] $end
$var reg 32 J" rs1_out [31:0] $end
$var reg 5 K" rs2_addr_out [4:0] $end
$var reg 32 L" rs2_out [31:0] $end
$upscope $end
$scope module if_id_reg $end
$var wire 1 " clk $end
$var wire 1 ( flush $end
$var wire 1 ) if_id_write $end
$var wire 1 # reset $end
$var wire 32 M" pc_in [31:0] $end
$var wire 32 N" instr_in [31:0] $end
$var reg 32 O" instr_out [31:0] $end
$var reg 32 P" pc_out [31:0] $end
$upscope $end
$scope module mem $end
$var wire 32 Q" address [31:0] $end
$var wire 1 " clk $end
$var wire 1 F mem_read $end
$var wire 1 D mem_write $end
$var wire 32 R" write_data [31:0] $end
$var wire 32 S" pc [31:0] $end
$var reg 32 T" instruction [31:0] $end
$var reg 32 U" read_data [31:0] $end
$upscope $end
$scope module mem_wb_reg $end
$var wire 32 V" alu_result_in [31:0] $end
$var wire 1 " clk $end
$var wire 32 W" imm_in [31:0] $end
$var wire 1 I is_lui_in $end
$var wire 1 H jal_in $end
$var wire 1 G jalr_in $end
$var wire 32 X" mem_read_data_in [31:0] $end
$var wire 1 E mem_to_reg_in $end
$var wire 32 Y" pc_plus4_in [31:0] $end
$var wire 5 Z" rd_in [4:0] $end
$var wire 1 @ reg_write_in $end
$var wire 1 # reset $end
$var reg 32 [" alu_result_out [31:0] $end
$var reg 32 \" imm_out [31:0] $end
$var reg 1 4 is_lui_out $end
$var reg 1 3 jal_out $end
$var reg 1 2 jalr_out $end
$var reg 32 ]" mem_read_data_out [31:0] $end
$var reg 1 0 mem_to_reg_out $end
$var reg 32 ^" pc_plus4_out [31:0] $end
$var reg 5 _" rd_out [4:0] $end
$var reg 1 - reg_write_out $end
$upscope $end
$scope module pc_reg $end
$var wire 1 o branch_taken $end
$var wire 32 `" branch_target [31:0] $end
$var wire 1 " clk $end
$var wire 1 k jal $end
$var wire 32 a" jal_target [31:0] $end
$var wire 1 i jalr $end
$var wire 32 b" jalr_target [31:0] $end
$var wire 1 , pc_write $end
$var wire 1 # reset $end
$var reg 32 c" pc [31:0] $end
$var reg 32 d" pc_next [31:0] $end
$upscope $end
$scope module regs $end
$var wire 1 " clk $end
$var wire 5 e" rd_addr [4:0] $end
$var wire 32 f" rd_data [31:0] $end
$var wire 5 g" rs1_addr [4:0] $end
$var wire 5 h" rs2_addr [4:0] $end
$var wire 1 - we $end
$var wire 32 i" rs2_data [31:0] $end
$var wire 32 j" rs1_data [31:0] $end
$var integer 32 k" i [31:0] $end
$upscope $end
$upscope $end
$upscope $end
$enddefinitions $end
$comment Show the parameter values. $end
$dumpall
$end
#0
$dumpvars
b100000 k"
bx j"
bx i"
bx h"
bx g"
bx f"
bx e"
b100 d"
b0 c"
bx0 b"
bx a"
bx `"
bx _"
bx ^"
bx ]"
bx \"
bx ["
bx Z"
bx Y"
bx X"
bx W"
bx V"
bx U"
b101000000000000010010011 T"
b0 S"
bx R"
bx Q"
bx P"
bx O"
b101000000000000010010011 N"
b0 M"
bx L"
bx K"
bx J"
bx I"
bx H"
bx G"
bx F"
bx E"
bx D"
bx C"
bx B"
bx A"
bx @"
bx ?"
bx >"
bx ="
bx <"
bx ;"
bx :"
bx 9"
bx 8"
bx 7"
bx 6"
bx 5"
bx 4"
bx 3"
bx 2"
bx 1"
bx 0"
bx /"
bx ."
bx -"
bx ,"
bx +"
bx *"
bx )"
bx ("
bx '"
bx &"
bx %"
bx $"
bx #"
bx ""
bx !"
bx ~
bx }
bx |
bx {
bx z
xy
bx x
bx w
bx v
bx u
bx t
bx s
xr
xq
xp
xo
bx n
bx m
bx l
xk
bx j
xi
xh
xg
xf
bx e
bx d
bx c
bx b
xa
bx `
bx _
bx ^
bx ]
bx \
bx [
bx Z
xY
xX
xW
xV
xU
xT
xS
xR
bx Q
bx P
bx O
b101000000000000010010011 N
xM
xL
bx K
bx J
xI
xH
xG
xF
xE
xD
bx C
bx B
bx A
x@
bx ?
bx >
b0 =
bx <
bx ;
bx :
bx 9
bx 8
bx 7
bx 6
bx 5
x4
x3
x2
bx 1
x0
bx /
bx .
x-
x,
b0 +
x*
x)
x(
x'
x&
x%
bx0 $
1#
0"
b0 !
$end
#5000
1,
1)
b0 8
b0 @"
b0 i"
b0 :
b0 A"
b0 j"
0V
0W
0X
0S
0U
1R
0T
1Y
b0 Z
b0 &"
b0 9"
0%
0'
0*
b0 6
b0 f"
b0 $
b0 b"
b0 [
b0 $"
b0 6"
b0 9
b0 1"
b0 ?"
b0 h"
b0 ;
b0 2"
b0 >"
b0 g"
b0 \
b0 %"
b0 7"
b0 :"
b0 <
b0 3"
b0 ="
b10011 >
b10011 #"
b10011 4"
b10011 <"
b0 O
b0 8"
b0 ;"
0&
0(
1q
b0 s
b0 }
b0 '"
0o
b0 u
b0 {
b0 v
b0 z
b0 x
b0 !"
b0 )"
b0 w
b0 ~
b10011 Q
b10011 5"
b10011 O"
b0 P
b0 B"
b0 P"
0i
0k
0p
0a
0g
0f
0h
0r
b0 t
b0 |
b0 C"
0L
0M
b0 e
b0 F"
b0 m
b0 ""
b0 D"
b0 b
b0 *"
b0 H"
b0 j
b0 a"
b0 n
b0 `"
b0 l
b0 +"
b0 E"
b0 ^
b0 K"
b0 `
b0 I"
b0 ]
b0 L"
b0 _
b0 J"
b100 c
b100 ("
b0 d
b0 G"
b0 J
b0 -"
b0 W"
b0 C
b0 ."
b0 Y"
0I
0G
0H
0@
0E
0D
0F
b0 B
b0 /"
b0 Z"
b0 ?
b0 0"
b0 R"
b0 K
b0 ,"
b0 Q"
b0 V"
b0 5
b0 \"
b0 /
b0 ^"
04
02
03
0-
00
b0 .
b0 _"
b0 e"
b0 7
b0 ["
b0 1
b0 ]"
0y
1"
#10000
0"
#15000
1"
#20000
0"
0#
#25000
b1010 9
b1010 1"
b1010 ?"
b1010 h"
b1 <
b1 3"
b1 ="
b1010 O
b1010 8"
b1010 ;"
b1100000000000100010011 N
b1100000000000100010011 N"
b1100000000000100010011 T"
b1000 d"
b101000000000000010010011 Q
b101000000000000010010011 5"
b101000000000000010010011 O"
1a
1r
b10011 e
b10011 F"
b100 C
b100 ."
b100 Y"
bx 1
bx ]"
b100 !
b100 +
b100 =
b100 M"
b100 S"
b100 c"
1"
#30000
0"
#35000
0q
b1010 s
b1010 }
b1010 '"
b1010 $
b1010 b"
b1010 u
b1010 {
b11 9
b11 1"
b11 ?"
b11 h"
b10 <
b10 3"
b10 ="
b11 O
b11 8"
b11 ;"
b1000001000000110110011 N
b1000001000000110110011 N"
b1000001000000110110011 T"
b1100 d"
b100 /
b100 ^"
1@
b1 b
b1 *"
b1 H"
b1010 j
b1010 a"
b1010 n
b1010 `"
b1010 l
b1010 +"
b1010 E"
b1010 ^
b1010 K"
b1100000000000100010011 Q
b1100000000000100010011 5"
b1100000000000100010011 O"
b100 P
b100 B"
b100 P"
b1000 !
b1000 +
b1000 =
b1000 M"
b1000 S"
b1000 c"
1"
#40000
0"
#45000
1R
0Y
b11 s
b11 }
b11 '"
b10 9
b10 1"
b10 ?"
b10 h"
b1 ;
b1 2"
b1 >"
b1 g"
b11 <
b11 3"
b11 ="
b110011 >
b110011 #"
b110011 4"
b110011 <"
b0 O
b0 8"
b0 ;"
b10 $
b10 b"
b11 u
b11 {
b1000000001000001000001000110011 N
b1000000001000001000001000110011 N"
b1000000001000001000001000110011 T"
b10000 d"
b1000001000000110110011 Q
b1000001000000110110011 5"
b1000001000000110110011 O"
b1000 P
b1000 B"
b1000 P"
b10 b
b10 *"
b10 H"
b11 l
b11 +"
b11 E"
b11 ^
b11 K"
b1000 c
b1000 ("
b111 j
b111 a"
b111 n
b111 `"
b100 d
b100 G"
b1010 J
b1010 -"
b1010 W"
b1 B
b1 /"
b1 Z"
b1010 K
b1010 ,"
b1010 Q"
b1010 V"
1-
b1100 !
b1100 +
b1100 =
b1100 M"
b1100 S"
b1100 c"
1"
#50000
0"
#55000
b1101 s
b1101 }
b1101 '"
b1010 v
b1010 z
b1010 w
b1010 ~
b1010 6
b1010 f"
b1 Z
b1 &"
b1 9"
1R
b1010 $
b1010 b"
b11 x
b11 !"
b11 )"
b100000 [
b100000 $"
b100000 6"
b100 <
b100 3"
b100 ="
b1000001111001010110011 N
b1000001111001010110011 N"
b1000001111001010110011 T"
b10100 d"
b1010 5
b1010 \"
b1 .
b1 _"
b1 e"
b1010 7
b1010 ["
b11 J
b11 -"
b11 W"
b1000 C
b1000 ."
b1000 Y"
b10 B
b10 /"
b10 Z"
b11 K
b11 ,"
b11 Q"
b11 V"
0r
b110011 e
b110011 F"
b11 b
b11 *"
b11 H"
b0 l
b0 +"
b0 E"
b10 ^
b10 K"
b1 `
b1 I"
b1100 c
b1100 ("
b1000 j
b1000 a"
b1000 n
b1000 `"
b1000 d
b1000 G"
b1000000001000001000001000110011 Q
b1000000001000001000001000110011 5"
b1000000001000001000001000110011 O"
b1100 P
b1100 B"
b1100 P"
b10000 !
b10000 +
b10000 =
b10000 M"
b10000 S"
b10000 c"
1"
#60000
0"
#65000
b11 6
b11 f"
1R
b10 Z
b10 &"
b10 9"
b11 u
b11 {
b0 v
b0 z
b0 $
b0 b"
b0 [
b0 $"
b0 6"
b111 \
b111 %"
b111 7"
b111 :"
b101 <
b101 3"
b101 ="
b1010 :
b1010 A"
b1010 j"
b11111111111111111111111111111101 s
b11111111111111111111111111111101 }
b11111111111111111111111111111101 '"
b11 x
b11 !"
b11 )"
b0 w
b0 ~
b1000001110001100110011 N
b1000001110001100110011 N"
b1000001110001100110011 T"
b11000 d"
b1000001111001010110011 Q
b1000001111001010110011 5"
b1000001111001010110011 O"
b10000 P
b10000 B"
b10000 P"
b1 t
b1 |
b1 C"
b100 b
b100 *"
b100 H"
b10000 c
b10000 ("
b1100 j
b1100 a"
b1100 n
b1100 `"
b1100 d
b1100 G"
b0 J
b0 -"
b0 W"
b1100 C
b1100 ."
b1100 Y"
b11 B
b11 /"
b11 Z"
b11 ?
b11 0"
b11 R"
b1101 K
b1101 ,"
b1101 Q"
b1101 V"
b11 5
b11 \"
b1000 /
b1000 ^"
b10 .
b10 _"
b10 e"
b11 7
b11 ["
b10100 !
b10100 +
b10100 =
b10100 M"
b10100 S"
b10100 c"
1"
#70000
0"
#75000
b1101 6
b1101 f"
b0 u
b0 {
b1010 v
b1010 z
b1010 $
b1010 b"
1R
b11 Z
b11 &"
b11 9"
1q
b0 s
b0 }
b0 '"
b0 x
b0 !"
b0 )"
b1010 w
b1010 ~
b11 8
b11 @"
b11 i"
b110 \
b110 %"
b110 7"
b110 :"
b110 <
b110 3"
b110 ="
b1000001100001110110011 N
b1000001100001110110011 N"
b1000001100001110110011 T"
b11100 d"
b0 5
b0 \"
b1100 /
b1100 ^"
b11 .
b11 _"
b11 e"
b1101 7
b1101 ["
b10000 C
b10000 ."
b10000 Y"
b100 B
b100 /"
b100 Z"
b11111111111111111111111111111101 K
b11111111111111111111111111111101 ,"
b11111111111111111111111111111101 Q"
b11111111111111111111111111111101 V"
b10 t
b10 |
b10 C"
b111 m
b111 ""
b111 D"
b101 b
b101 *"
b101 H"
b1010 _
b1010 J"
b10100 c
b10100 ("
b10000 j
b10000 a"
b10000 n
b10000 `"
b10000 d
b10000 G"
b1000001110001100110011 Q
b1000001110001100110011 5"
b1000001110001100110011 O"
b10100 P
b10100 B"
b10100 P"
b11000 !
b11000 +
b11000 =
b11000 M"
b11000 S"
b11000 c"
1"
#80000
0"
#85000
b11111111111111111111111111111101 6
b11111111111111111111111111111101 f"
1R
b100 Z
b100 &"
b100 9"
b11 u
b11 {
b100 \
b100 %"
b100 7"
b100 :"
b111 <
b111 3"
b111 ="
0q
b1011 s
b1011 }
b1011 '"
b11 x
b11 !"
b11 )"
b1000010001010000110011 N
b1000010001010000110011 N"
b1000010001010000110011 T"
b100000 d"
b1000001100001110110011 Q
b1000001100001110110011 5"
b1000001100001110110011 O"
b11000 P
b11000 B"
b11000 P"
b11 t
b11 |
b11 C"
b110 m
b110 ""
b110 D"
b110 b
b110 *"
b110 H"
b11 ]
b11 L"
b11000 c
b11000 ("
b10100 j
b10100 a"
b10100 n
b10100 `"
b10100 d
b10100 G"
b10100 C
b10100 ."
b10100 Y"
b101 B
b101 /"
b101 Z"
b0 ?
b0 0"
b0 R"
b0 K
b0 ,"
b0 Q"
b0 V"
b10000 /
b10000 ^"
b100 .
b100 _"
b100 e"
b11111111111111111111111111111101 7
b11111111111111111111111111111101 ["
b11100 !
b11100 +
b11100 =
b11100 M"
b11100 S"
b11100 c"
1"
#90000
0"
#95000
b0 6
b0 f"
b11 :
b11 A"
b11 j"
1R
b111 Z
b111 &"
b111 9"
b1001 s
b1001 }
b1001 '"
b10 ;
b10 2"
b10 >"
b10 g"
b1 \
b1 %"
b1 7"
b1 :"
b1000 <
b1000 3"
b1000 ="
b1001000101010010110011 N
b1001000101010010110011 N"
b1001000101010010110011 T"
b100100 d"
b10100 /
b10100 ^"
b101 .
b101 _"
b101 e"
b0 7
b0 ["
b11000 C
b11000 ."
b11000 Y"
b110 B
b110 /"
b110 Z"
b11 ?
b11 0"
b11 R"
b1011 K
b1011 ,"
b1011 Q"
b1011 V"
b100 t
b100 |
b100 C"
b100 m
b100 ""
b100 D"
b111 b
b111 *"
b111 H"
b11100 c
b11100 ("
b11000 j
b11000 a"
b11000 n
b11000 `"
b11000 d
b11000 G"
b1000010001010000110011 Q
b1000010001010000110011 5"
b1000010001010000110011 O"
b11100 P
b11100 B"
b11100 P"
b100000 !
b100000 +
b100000 =
b100000 M"
b100000 S"
b100000 c"
1"
#100000
0"
#105000
b1011 6
b1011 f"
b0 :
b0 A"
b0 j"
1R
b1000 Z
b1000 &"
b1000 9"
b11 v
b11 z
b10 $
b10 b"
b1000 ;
b1000 2"
b1000 >"
b1000 g"
b101 \
b101 %"
b101 7"
b101 :"
b1001 <
b1001 3"
b1001 ="
b11000 s
b11000 }
b11000 '"
b11 w
b11 ~
b100010010010100110011 N
b100010010010100110011 N"
b100010010010100110011 T"
b101000 d"
b1001000101010010110011 Q
b1001000101010010110011 5"
b1001000101010010110011 O"
b100000 P
b100000 B"
b100000 P"
b111 t
b111 |
b111 C"
b1 m
b1 ""
b1 D"
b1000 b
b1000 *"
b1000 H"
b10 `
b10 I"
b11 _
b11 J"
b100000 c
b100000 ("
b11100 j
b11100 a"
b11100 n
b11100 `"
b11100 d
b11100 G"
b11100 C
b11100 ."
b11100 Y"
b111 B
b111 /"
b111 Z"
b1001 K
b1001 ,"
b1001 Q"
b1001 V"
b11000 /
b11000 ^"
b110 .
b110 _"
b110 e"
b1011 7
b1011 ["
b100100 !
b100100 +
b100100 =
b100100 M"
b100100 S"
b100100 c"
1"
#110000
0"
#115000
b1001 6
b1001 f"
b11000 v
b11000 z
b11000 $
b11000 b"
b1010 8
b1010 @"
b1010 i"
b11 :
b11 A"
b11 j"
1R
b101 Z
b101 &"
b101 9"
0q
b11 s
b11 }
b11 '"
b11000 w
b11000 ~
b1 9
b1 1"
b1 ?"
b1 h"
b10 ;
b10 2"
b10 >"
b10 g"
b10 \
b10 %"
b10 7"
b10 :"
b1010 <
b1010 3"
b1010 ="
b10011 N
b10011 N"
b10011 T"
b101100 d"
b11100 /
b11100 ^"
b111 .
b111 _"
b111 e"
b1001 7
b1001 ["
b100000 C
b100000 ."
b100000 Y"
b1000 B
b1000 /"
b1000 Z"
b11000 K
b11000 ,"
b11000 Q"
b11000 V"
b1000 t
b1000 |
b1000 C"
b101 m
b101 ""
b101 D"
b1001 b
b1001 *"
b1001 H"
b1000 `
b1000 I"
b0 _
b0 J"
b100100 c
b100100 ("
b100000 j
b100000 a"
b100000 n
b100000 `"
b100000 d
b100000 G"
b100010010010100110011 Q
b100010010010100110011 5"
b100010010010100110011 O"
b100100 P
b100100 B"
b100100 P"
b101000 !
b101000 +
b101000 =
b101000 M"
b101000 S"
b101000 c"
1"
#120000
0"
#125000
b11000 6
b11000 f"
b0 8
b0 @"
b0 i"
b0 :
b0 A"
b0 j"
1Y
1R
b0 Z
b0 &"
b0 9"
b1010 u
b1010 {
b11 v
b11 z
b10 $
b10 b"
b0 9
b0 1"
b0 ?"
b0 h"
b0 ;
b0 2"
b0 >"
b0 g"
b0 \
b0 %"
b0 7"
b0 :"
b0 <
b0 3"
b0 ="
b10011 >
b10011 #"
b10011 4"
b10011 <"
0q
b1 s
b1 }
b1 '"
b1010 x
b1010 !"
b1010 )"
b11 w
b11 ~
b110000 d"
b10011 Q
b10011 5"
b10011 O"
b101000 P
b101000 B"
b101000 P"
b101 t
b101 |
b101 C"
b10 m
b10 ""
b10 D"
b1010 b
b1010 *"
b1010 H"
b1 ^
b1 K"
b10 `
b10 I"
b1010 ]
b1010 L"
b11 _
b11 J"
b101000 c
b101000 ("
b100100 j
b100100 a"
b100100 n
b100100 `"
b100100 d
b100100 G"
b100100 C
b100100 ."
b100100 Y"
b1001 B
b1001 /"
b1001 Z"
b11 K
b11 ,"
b11 Q"
b11 V"
b100000 /
b100000 ^"
b1000 .
b1000 _"
b1000 e"
b11000 7
b11000 ["
b101100 !
b101100 +
b101100 =
b101100 M"
b101100 S"
b101100 c"
1"
#130000
0"
#135000
b11 6
b11 f"
1q
b0 v
b0 z
b0 $
b0 b"
b0 u
b0 {
b0 s
b0 }
b0 '"
b0 x
b0 !"
b0 )"
b0 w
b0 ~
b110100 d"
b100100 /
b100100 ^"
b1001 .
b1001 _"
b1001 e"
b11 7
b11 ["
b101000 C
b101000 ."
b101000 Y"
b1010 B
b1010 /"
b1010 Z"
b1010 ?
b1010 0"
b1010 R"
b1 K
b1 ,"
b1 Q"
b1 V"
1r
b0 t
b0 |
b0 C"
b10011 e
b10011 F"
b0 m
b0 ""
b0 D"
b0 b
b0 *"
b0 H"
b0 ^
b0 K"
b0 `
b0 I"
b0 ]
b0 L"
b0 _
b0 J"
b101100 c
b101100 ("
b101000 j
b101000 a"
b101000 n
b101000 `"
b101000 d
b101000 G"
b101100 P
b101100 B"
b101100 P"
b110000 !
b110000 +
b110000 =
b110000 M"
b110000 S"
b110000 c"
1"
#140000
0"
#145000
b1 6
b1 f"
bx N
bx N"
bx T"
b111000 d"
b110000 P
b110000 B"
b110000 P"
b110000 c
b110000 ("
b101100 j
b101100 a"
b101100 n
b101100 `"
b101100 d
b101100 G"
b101100 C
b101100 ."
b101100 Y"
b0 B
b0 /"
b0 Z"
b0 ?
b0 0"
b0 R"
b0 K
b0 ,"
b0 Q"
b0 V"
b101000 /
b101000 ^"
b1010 .
b1010 _"
b1010 e"
b1 7
b1 ["
b110100 !
b110100 +
b110100 =
b110100 M"
b110100 S"
b110100 c"
1"
#150000
0"
#155000
b0 6
b0 f"
bx 8
bx @"
bx i"
bx :
bx A"
bx j"
0R
0Y
bx [
bx $"
bx 6"
bx 9
bx 1"
bx ?"
bx h"
bx ;
bx 2"
bx >"
bx g"
bx \
bx %"
bx 7"
bx :"
bx <
bx 3"
bx ="
bx >
bx #"
bx 4"
bx <"
b0 O
b0 8"
b0 ;"
b111100 d"
b101100 /
b101100 ^"
b0 .
b0 _"
b0 e"
b0 7
b0 ["
b110000 C
b110000 ."
b110000 Y"
b110100 c
b110100 ("
b110000 j
b110000 a"
b110000 n
b110000 `"
b110000 d
b110000 G"
bx Q
bx 5"
bx O"
b110100 P
b110100 B"
b110100 P"
b111000 !
b111000 +
b111000 =
b111000 M"
b111000 S"
b111000 c"
1"
#160000
0"
#165000
xq
bx s
bx }
bx '"
bx0 $
bx0 b"
bx u
bx {
bx v
bx z
bx x
bx !"
bx )"
bx w
bx ~
b1000000 d"
b111000 P
b111000 B"
b111000 P"
0a
0r
xL
xM
bx e
bx F"
bx m
bx ""
bx D"
bx b
bx *"
bx H"
bx ^
bx K"
bx `
bx I"
bx ]
bx L"
bx _
bx J"
b111000 c
b111000 ("
b110100 j
b110100 a"
b110100 n
b110100 `"
b110100 d
b110100 G"
b110100 C
b110100 ."
b110100 Y"
b110000 /
b110000 ^"
b111100 !
b111100 +
b111100 =
b111100 M"
b111100 S"
b111100 c"
1"
#170000
0"
#175000
b1000100 d"
b110100 /
b110100 ^"
b111000 C
b111000 ."
b111000 Y"
xI
0@
bx B
bx /"
bx Z"
bx ?
bx 0"
bx R"
bx K
bx ,"
bx Q"
bx V"
b111100 c
b111100 ("
b111000 j
b111000 a"
b111000 n
b111000 `"
b111000 d
b111000 G"
b111100 P
b111100 B"
b111100 P"
b1000000 !
b1000000 +
b1000000 =
b1000000 M"
b1000000 S"
b1000000 c"
1"
#180000
0"
#185000
bx 6
bx f"
b1001000 d"
b1000000 P
b1000000 B"
b1000000 P"
b1000000 c
b1000000 ("
b111100 j
b111100 a"
b111100 n
b111100 `"
b111100 d
b111100 G"
b111100 C
b111100 ."
b111100 Y"
b111000 /
b111000 ^"
x4
0-
bx .
bx _"
bx e"
bx 7
bx ["
b1000100 !
b1000100 +
b1000100 =
b1000100 M"
b1000100 S"
b1000100 c"
1"
#190000
0"
#195000
b1001100 d"
b111100 /
b111100 ^"
b1000000 C
b1000000 ."
b1000000 Y"
b1000100 c
b1000100 ("
b1000000 j
b1000000 a"
b1000000 n
b1000000 `"
b1000000 d
b1000000 G"
b1000100 P
b1000100 B"
b1000100 P"
b1001000 !
b1001000 +
b1001000 =
b1001000 M"
b1001000 S"
b1001000 c"
1"
#200000
0"
#205000
b1010000 d"
b1001000 P
b1001000 B"
b1001000 P"
b1001000 c
b1001000 ("
b1000100 j
b1000100 a"
b1000100 n
b1000100 `"
b1000100 d
b1000100 G"
b1000100 C
b1000100 ."
b1000100 Y"
b1000000 /
b1000000 ^"
b1001100 !
b1001100 +
b1001100 =
b1001100 M"
b1001100 S"
b1001100 c"
1"
#210000
0"
#215000
b1010100 d"
b1000100 /
b1000100 ^"
b1001000 C
b1001000 ."
b1001000 Y"
b1001100 c
b1001100 ("
b1001000 j
b1001000 a"
b1001000 n
b1001000 `"
b1001000 d
b1001000 G"
b1001100 P
b1001100 B"
b1001100 P"
b1010000 !
b1010000 +
b1010000 =
b1010000 M"
b1010000 S"
b1010000 c"
1"
#220000
0"
